Intro to R for Data Science
…
These verbs can be combined in powerful ways to do some really interesting data manipulation tasks. 

---
# select

```r
select(gapminder, lifeExp, pop)
```

```
## # A tibble: 1,704 x 2
##    lifeExp      pop
##      <dbl>    <dbl>
##  1    28.8  8425333
##  2    30.3  9240934
##  3    32.0 10267083
##  4    34.0 11537966
##  5    36.1 13079460
##  6    38.4 14880372
##  7    39.9 12881816
##  8    40.8 13867957
##  9    41.7 16317921
## 10    41.8 22227415
## # ... with 1,694 more rows
```

---

# The pipe operator

* `%>%` = **"and then"**

```r
gapminder %>%
  select(lifeExp, country)
```

```
## # A tibble: 1,704 x 2
##    lifeExp country    
##      <dbl> <chr>      
##  1    28.8 Afghanistan
##  2    30.3 Afghanistan
##  3    32.0 Afghanistan
##  4    34.0 Afghanistan
##  5    36.1 Afghanistan
##  6    38.4 Afghanistan
##  7    39.9 Afghanistan
##  8    40.8 Afghanistan
##  9    41.7 Afghanistan
## 10    41.8 Afghanistan
## # ... with 1,694 more rows
```
…
---
class: inverse, center, middle

# Exercises Part I

---
## 1. Run the following line of code, what does the minus do?

```r
gapminder %>%
  select(-c(lifeExp, country))
```

```
## # A tibble: 1,704 x 6
##    continent  year      pop gdpPercap infant_mortality fertility
##    <chr>     <dbl>    <dbl>     <dbl>            <dbl>     <dbl>
##  1 Asia       1952  8425333      779.               NA        NA
##  2 Asia       1957  9240934      821.               NA        NA
##  3 Asia       1962 10267083      853.               NA        NA
##  4 Asia       1967 11537966      836.               NA        NA
##  5 Asia       1972 13079460      740.               NA        NA
##  6 Asia       1977 14880372      786.               NA        NA
##  7 Asia       1982 12881816      978.               NA        NA
##  8 Asia       1987 13867957      852.               NA        NA
##  9 Asia       1992 16317921      649.               NA        NA
## 10 Asia       1997 22227415      635.               NA        NA
## # ... with 1,694 more rows
```

---
## 2. Select the columns `country`, `continent` and `gdpPercap` from the data frame. 

```r
gapminder %>%
  select("country", "continent", "gdpPercap")
```

```
## # A tibble: 1,704 x 3
##    country     continent gdpPercap
##    <chr>       <chr>         <dbl>
##  1 Afghanistan Asia           779.
##  2 Afghanistan Asia           821.
##  3 Afghanistan Asia           853.
##  4 Afghanistan Asia           836.
##  5 Afghanistan Asia           740.
##  6 Afghanistan Asia           786.
##  7 Afghanistan Asia           978.
##  8 Afghanistan Asia           852.
##  9 Afghanistan Asia           649.
## 10 Afghanistan Asia           635.
## # ... with 1,694 more rows
```
…
---

# Filter rows from a set of matches

```r
gapminder %>%
  filter(country %in% c("Jordan", "Oman",
                        "Syria", "Yemen, Rep."))
```

```
## # A tibble: 48 x 8
##    country continent  year lifeExp     pop gdpPercap infant_mortality fertility
##    <chr>   <chr>     <dbl>   <dbl>   <dbl>     <dbl>            <dbl>     <dbl>
##  1 Jordan  Asia       1952    43.2  607914     1547.             NA       NA   
##  2 Jordan  Asia       1957    45.7  746559     1886.             NA       NA   
##  3 Jordan  Asia       1962    48.1  933559     2348.             96.6      7.9 
##  4 Jordan  Asia       1967    51.6 1255058     2742.             75.2      8.03
##  5 Jordan  Asia       1972    56.5 1613551     2111.             60.2      7.82
##  6 Jordan  Asia       1977    61.1 1937652     2852.             49.1      7.46
##  7 Jordan  Asia       1982    63.7 2347031     4161.             40.2      7.07
##  8 Jordan  Asia       1987    65.9 2820042     4449.             33.1      6.16
##  9 Jordan  Asia       1992    68.0 3867409     3432.             28.3      5.17
## 10 Jordan  Asia       1997    69.8 4526235     3645.             24.9      4.4 
## # ... with 38 more rows
```
…
---
class: inverse, center, middle

# Exercises Part 2

---
## 1. What do these lines of code filter the data for?

```r
gapminder %>%
  filter(continent == "Europe", lifeExp > 70)
```

```
## # A tibble: 257 x 8
##    country continent  year lifeExp     pop gdpPercap infant_mortality fertility
##    <chr>   <chr>     <dbl>   <dbl>   <dbl>     <dbl>            <dbl>     <dbl>
##  1 Albania Europe     1982    70.4 2780097     3631.             56.1      3.46
##  2 Albania Europe     1987    72   3075321     3739.             40.8      3.13
##  3 Albania Europe     1992    71.6 3326498     2497.             32.5      2.87
##  4 Albania Europe     1997    73.0 3428038     3193.             26.8      2.61
##  5 Albania Europe     2002    75.7 3508512     4604.             21        2.2 
##  6 Albania Europe     2007    76.4 3600523     5937.             16.7      1.8 
##  7 Austria Europe     1967    70.1 7376998    12835.             26.4      2.62
##  8 Austria Europe     1972    70.6 7544201    16662.             24.1      2.09
##  9 Austria Europe     1977    72.2 7568430    19749.             16.6      1.63
## 10 Austria Europe     1982    73.2 7574613    21597.             12.6      1.66
## # ... with 247 more rows
```
…
---
## 3. Filter the data for observations where the gdpPercap was equal to 1000 or less. 

```r
gapminder %>%
  filter(gdpPercap <= 1000)
```

```
## # A tibble: 351 x 8
##    country     continent  year lifeExp      pop gdpPercap infant_mortality fertility
##    <chr>       <chr>     <dbl>   <dbl>    <dbl>     <dbl>            <dbl>     <dbl>
##  1 Afghanistan Asia       1952    28.8  8425333      779.               NA        NA
##  2 Afghanistan Asia       1957    30.3  9240934      821.               NA        NA
##  3 Afghanistan Asia       1962    32.0 10267083      853.               NA        NA
##  4 Afghanistan Asia       1967    34.0 11537966      836.               NA        NA
##  5 Afghanistan Asia       1972    36.1 13079460      740.               NA        NA
##  6 Afghanistan Asia       1977    38.4 14880372      786.               NA        NA
##  7 Afghanistan Asia       1982    39.9 12881816      978.               NA        NA
##  8 Afghanistan Asia       1987    40.8 13867957      852.               NA        NA
##  9 Afghanistan Asia       1992    41.7 16317921      649.               NA        NA
## 10 Afghanistan Asia       1997    41.8 22227415      635.               NA        NA
## # ... with 341 more rows
```
…
---
## 5. Filter the data using `!=` to include the data from all continents apart from Europe. 

```r
gapminder %>%
  filter(continent != "Europe")
```

```
## # A tibble: 1,344 x 8
##    country     continent  year lifeExp      pop gdpPercap infant_mortality fertility
##    <chr>       <chr>     <dbl>   <dbl>    <dbl>     <dbl>            <dbl>     <dbl>
##  1 Afghanistan Asia       1952    28.8  8425333      779.               NA        NA
##  2 Afghanistan Asia       1957    30.3  9240934      821.               NA        NA
##  3 Afghanistan Asia       1962    32.0 10267083      853.               NA        NA
##  4 Afghanistan Asia       1967    34.0 11537966      836.               NA        NA
##  5 Afghanistan Asia       1972    36.1 13079460      740.               NA        NA
##  6 Afghanistan Asia       1977    38.4 14880372      786.               NA        NA
##  7 Afghanistan Asia       1982    39.9 12881816      978.               NA        NA
##  8 Afghanistan Asia       1987    40.8 13867957      852.               NA        NA
##  9 Afghanistan Asia       1992    41.7 16317921      649.               NA        NA
## 10 Afghanistan Asia       1997    41.8 22227415      635.               NA        NA
## # ... with 1,334 more rows
```
…
--

```r
(lifeExp_stats_country <- gapminder %>%
*                            group_by(country) %>%
                             summarise(
                                mean_lifeExp = mean(lifeExp),
                                min_lifeExp = min(lifeExp), 
                                max_lifeExp = max(lifeExp)
                                ))
```

```
## # A tibble: 142 x 4
##    country     mean_lifeExp min_lifeExp max_lifeExp
##    <chr>              <dbl>       <dbl>       <dbl>
##  1 Afghanistan         37.5        28.8        43.8
##  2 Albania             68.4        55.2        76.4
##  3 Algeria             59.0        43.1        72.3
##  4 Angola              37.9        30.0        42.7
##  5 Argentina           69.1        62.5        75.3
##  6 Australia           74.7        69.1        81.2
##  7 Austria             73.1        66.8        79.8
##  8 Bahrain             65.6        50.9        75.6
##  9 Bangladesh          49.8        37.5        64.1
## 10 Belgium             73.6        68          79.4
## # ... with 132 more rows
```
…
class: inverse, center, middle

# Exercises Part 3

---
## 1. What does the following bit of code do? 

```r
gapminder %>%
      group_by(continent, year) %>%
      summarise(mean_gdpPercap = mean(gdpPercap))
```

```
## # A tibble: 60 x 3
## # Groups:   continent [5]
##    continent  year mean_gdpPercap
##    <chr>     <dbl>          <dbl>
##  1 Africa     1952          1253.
##  2 Africa     1957          1385.
##  3 Africa     1962          1598.
##  4 Africa     1967          2050.
##  5 Africa     1972          2340.
##  6 Africa     1977          2586.
##  7 Africa     1982          2482.
##  8 Africa     1987          2283.
##  9 Africa     1992          2282.
## 10 Africa     1997          2379.
## # ... with 50 more rows
```
…
