Intro to R for Data Science
…
---

## **Bonus**

3. Extract all the rows for the columns `gdpPercap` and `pop`.

Hint: look back to how we selected row 1 and all columns. 

```r
gapminder[, c("gdpPercap", "pop")]
```

```
## # A tibble: 1,704 x 2
##    gdpPercap      pop
##        <dbl>    <dbl>
##  1      779.  8425333
##  2      821.  9240934
##  3      853. 10267083
##  4      836. 11537966
##  5      740. 13079460
##  6      786. 14880372
##  7      978. 12881816
##  8      852. 13867957
##  9      649. 16317921
## 10      635. 22227415
## # ... with 1,694 more rows
```
…
